{
    "$schema": "http://json-schema.org/draft-04/schema",
    "title": "ASOBO_material_SSS glTF extension",
    "type": "object",
    "allOf": [ { "$ref": "glTFChildOfRootProperty.schema.json" } ],
    "properties": {
        "SSSColor": {
            "type": "array",
            "items": {
                "type": "number"
            },
            "minItems": 2,
            "maxItems": 2
        },   
        "opacityTexture": {
            "allOf": [ { "$ref": "textureInfo.schema.json" } ]
        },
        "extensions": { },
        "extras": { }
    }
}